{
    "Weapons":{
        "Type":{
            "Sword":"One Handed Sword Weapons",
            "Claymore":"Greatsword/Claymore Type Weapons",
            "Catalyst":"Book/Catalyst Type Weapons",
            "Polearm":"Spear/Polearm Type Weapons",
            "Bow":"Bow Type Weapons"
        },
        "Substat":{
            "Atk":"Weapons with Attack% boost as the substat",
            "Def":"Weapons with Defense% boost as the substat",
            "Hp":"Weapons with Hp% boost as the substat",
            "Crit Rate (Rate)":"Weapons with Crit Rate boost as the substat",
            "Crit Dmg (Crit DM)":"Weapons with Crit Damage boost as the substat",
            "Phys Dmg (Phys)":"Weapons with Physical Damage boost as the substat",
            "Energy Recharge (Ene)":"Weapons with Energy Recharge boost as the substat",
            "Elemental Mastery (Ele)":"Weapons with Elemental Mastery boost as the substat"
        },
        "Passives":{
            "Burst":"These weapons deal a burst of damage when conditions are met",
            "Pyro":"These weapons have a special relationship with pyro",
            "Electro":"These weapons have a special relationship with electro",
            "Cryo":"These weapons have a special relationship with cyro",
            "Hydro":"These weapons have a special relationship with hyyro",
            "Anemo":"These weapons have a special relationship with anero",
            "Geo":"These weapons have a special relationship with geo",
            "Dendro":"These weapons have a special relationship with dendro",
            "ABuff":"These weapons buff Atk under certain conditions",
            "DBuff":"These weapons buff Def under certain conditions",
            "NBuff":"These weapons buff Normal Attack/Charged Attacks under certain conditions",
            "Crit PRate":"These weapons buff Crit Rate under certain conditions",
            "Crit PDmg":"These weapons buff Crit Damage under certain conditions"
        },
        "Special":{
            "Cooldown":"These weapons affect the cooldown of skills",
            "Healing":"These weapons heal the user when conditions are met",
            "Refund":"These weapons recharge the ult of the user when conditions are met",
            "Shields":"These weapons have a special relationship with shields",
            "Craftable":"These weapons are craftable using prototype materials",
            "Earnable":"These weapons Can be found in chests or quests or the open world",
           "Gacha":"These weapons are only gacha obtainable"
        }
    },
    "Characters":{
        "Class":{
            "Sword":"Shortsword Users",
            "Claymore":"Greatsword/Claymore Users",
            "Catalyst":"Book/Catalyst Users",
            "Polearm":"Spear/Polearm Users",
            "Bow":"Bow Users"
        },
        "Rarity":{
            "5":"5\\* Characters",
            "4":"4\\* Characters"
        },
        "Element":{
            "Pyro":"",
            "Hydro":"",
            "Electro":"",
            "Cryo":"",
            "Geo":"",
            "Anemo":"",
            "Dendro":""
        }
    }
}